%
M48
M72
T01C0.02362
T02C0.03200
T03C0.03346
T04C0.04400
T05C0.05900
%
T01
X38400Y27800
X128900Y49300
X139400Y74300
X175400Y53800
X191400Y46300
X246900Y34800
X293400Y48800
X229400Y103300
X188400Y94300
X175900Y119300
X156900Y134300
X196900Y136300
X189900Y170300
X248900Y143300
X261900Y136800
X291400Y109300
X281900Y175800
X267400Y176300
X298900Y176800
X83900Y117800
X54900Y168800
T02
X84600Y149900
X94600Y149900
X94600Y94400
X84600Y94400
T03
X86100Y12300
X76100Y12300
X66100Y12300
X56100Y12300
X96100Y12300
X106100Y12300
X116100Y12300
X126100Y12300
X146100Y12300
X156100Y12300
X166100Y12300
X176100Y12300
X186100Y12300
X196100Y12300
X206100Y12300
X216100Y12300
X236100Y12300
X246100Y12300
X256100Y12300
X266100Y12300
X276100Y12300
X286100Y12300
X296100Y12300
X306100Y12300
X196100Y202300
X186100Y202300
X176100Y202300
X166100Y202300
X156100Y202300
X146100Y202300
X136100Y202300
X126100Y202300
X110100Y202300
X100100Y202300
X90100Y202300
X80100Y202300
X70100Y202300
X60100Y202300
X50100Y202300
X40100Y202300
X30100Y202300
X20100Y202300
T04
X262700Y79300
X262700Y64300
X262700Y49300
T05
X65900Y64700
X36400Y62600
X23600Y81100
X49000Y91300
X54500Y101200
X36400Y115800
X23600Y134300
X49000Y144500
X54500Y154400
X65900Y117900
M30
